{
  "project_info": {
    "project_number": "88862147341",
    "firebase_url": "https://servicehub-c6cf2-default-rtdb.firebaseio.com",
    "project_id": "servicehub-c6cf2",
    "storage_bucket": "servicehub-c6cf2.appspot.com"
  },
  "client": [
    {
      "client_info": {
        "mobilesdk_app_id": "1:88862147341:android:da10d0c058fd8364296644",
        "android_client_info": {
          "package_name": "com.clicky.shprovider"
        }
      },
      "oauth_client": [
        {
          "client_id": "88862147341-996l43e7k1o563pop5of0ur4p75in9ss.apps.googleusercontent.com",
          "client_type": 3
        }
      ],
      "api_key": [
        {
          "current_key": "AIzaSyChY-BeaOsYJqgZCGn-njDu73GcXNYWnLc"
        }
      ],
      "services": {
        "appinvite_service": {
          "other_platform_oauth_client": [
            {
              "client_id": "88862147341-996l43e7k1o563pop5of0ur4p75in9ss.apps.googleusercontent.com",
              "client_type": 3
            }
          ]
        }
      }
    }
  ],
  "configuration_version": "1"
}